%YAML 1.1
%TAG !u! tag:unity3d.com,2011:
--- !u!114 &11400000
MonoBehaviour:
  m_ObjectHideFlags: 0
  m_CorrespondingSourceObject: {fileID: 0}
  m_PrefabInstance: {fileID: 0}
  m_PrefabAsset: {fileID: 0}
  m_GameObject: {fileID: 0}
  m_Enabled: 1
  m_EditorHideFlags: 0
  m_Script: {fileID: 11500000, guid: 54d21f6ece3b46479f0c328f8c6007e0, type: 3}
  m_Name: New TMP Color Gradient
  m_EditorClassIdentifier: 
  colorMode: 3
  topLeft: {r: 0.9245283, g: 0.082858644, b: 0.082858644, a: 1}
  topRight: {r: 0.5283019, g: 0.102171585, b: 0.102171585, a: 1}
  bottomLeft: {r: 0.9254902, g: 0.08235294, b: 0.08235294, a: 1}
  bottomRight: {r: 0.5294118, g: 0.101960786, b: 0.101960786, a: 1}
